<svg width="335" height="376" viewBox="0 0 335 376" fill="none" xmlns="http://www.w3.org/2000/svg">
<g opacity="0.4">
<path opacity="0.4" d="M267.472 112.435C255.422 114.063 242.134 115.375 227.922 116.322L227.824 150.285C192.306 147.224 122.971 150.261 123.214 150.285L123.335 131.967V116.443C109.779 115.569 97.0489 114.378 85.3877 112.897V104.539V62.4376C110.897 59.2065 141.604 57.3115 174.644 57.3115C209.239 57.3115 241.259 59.3765 267.472 62.9235V104.564V112.435Z" fill="#D6D8E5"/>
</g>
<path opacity="0.2" d="M206.907 375.999C246.394 375.999 278.405 373.781 278.405 371.043C278.405 368.306 246.394 366.087 206.907 366.087C167.42 366.087 135.409 368.306 135.409 371.043C135.409 373.781 167.42 375.999 206.907 375.999Z" fill="#D6D8E5"/>
<path d="M198.136 145.378C197.286 144.504 196.363 143.581 195.756 142.512C195.367 141.856 195.124 141.103 194.784 140.422C194.76 140.374 194.711 140.349 194.662 140.374C193.253 140.835 191.868 141.37 190.532 142.05C189.463 142.585 188.419 143.168 187.35 143.678C186.475 144.091 185.576 144.479 184.653 144.82C184.605 144.844 184.556 144.893 184.58 144.965C185.455 147.905 186.111 150.893 186.524 153.93C186.524 154.003 186.645 154.027 186.718 153.979C188.977 151.355 191.043 148.585 193.472 146.107C194.371 145.208 195.294 144.334 196.241 143.483C196.339 143.386 196.193 143.241 196.096 143.338C194.565 144.698 193.108 146.132 191.747 147.662C190.654 148.877 189.658 150.14 188.613 151.403C187.933 152.229 187.277 153.031 186.572 153.833C186.645 153.857 186.694 153.857 186.767 153.881C186.329 150.845 185.673 147.856 184.823 144.917C184.799 144.965 184.775 145.014 184.75 145.063C186.135 144.528 187.52 143.921 188.832 143.24C189.876 142.682 190.921 142.123 192.039 141.637C192.937 141.248 193.861 140.908 194.784 140.617C194.735 140.592 194.711 140.592 194.662 140.568C195.002 141.273 195.27 142.001 195.658 142.682C196.29 143.751 197.213 144.65 198.064 145.548C198.088 145.646 198.234 145.5 198.136 145.378Z" fill="#192244"/>
<path d="M200.544 146.548C200.691 146.548 200.691 146.327 200.544 146.327C200.396 146.327 200.396 146.548 200.544 146.548Z" fill="#192244"/>
<path d="M48.4119 218.745C39.4474 217.579 33.7869 226.228 35.7547 238.108C37.7225 249.987 46.5899 260.555 55.5544 261.722C64.519 262.888 70.1795 254.239 68.2117 242.359L51.9832 240.221L48.4119 218.745Z" fill="#3F4FD3"/>
<path d="M48.4121 218.745L51.9833 240.245L68.2118 242.383C66.2197 230.479 57.3524 219.911 48.4121 218.745Z" fill="#F5B900"/>
<g opacity="0.7">
<g opacity="0.7">
<path opacity="0.7" d="M1.96161 284.51C4.29385 284.024 6.60179 283.514 8.93403 283.028C15.2505 281.692 21.5913 280.331 27.9078 278.995C37.2367 277.003 46.5414 275.035 55.8703 273.043C67.24 270.614 78.6097 268.209 89.9793 265.779C102.467 263.131 114.954 260.459 127.465 257.811C140.074 255.138 152.683 252.442 165.291 249.769C176.977 247.291 188.662 244.789 200.323 242.311C210.26 240.197 220.196 238.084 230.132 235.97C237.275 234.44 244.417 232.934 251.56 231.403C254.912 230.698 258.338 230.091 261.666 229.241C261.812 229.217 261.958 229.168 262.103 229.144C262.249 229.119 262.176 228.901 262.055 228.925C259.723 229.411 257.415 229.921 255.082 230.407C248.766 231.743 242.425 233.104 236.109 234.44C226.78 236.432 217.475 238.4 208.146 240.392C196.776 242.821 185.407 245.226 174.037 247.656C161.55 250.304 149.063 252.976 136.551 255.624C123.943 258.297 111.334 260.993 98.7252 263.666C87.0397 266.144 75.3543 268.646 63.6931 271.124C53.7568 273.238 43.8204 275.351 33.8841 277.465C26.7416 278.995 19.5992 280.501 12.4567 282.032C9.10409 282.737 5.67862 283.344 2.35032 284.194C2.20455 284.218 2.05879 284.267 1.91302 284.291C1.76726 284.316 1.84014 284.534 1.96161 284.51Z" fill="#192244"/>
</g>
</g>
<g opacity="0.7">
<g opacity="0.7">
<path opacity="0.7" d="M0.0911031 217.869C2.44764 217.991 4.77988 218.088 7.13641 218.209C13.5015 218.501 19.8423 218.817 26.2073 219.108C35.6092 219.546 44.9867 220.007 54.3885 220.444C65.8797 221.003 77.3951 221.538 88.8862 222.096C101.398 222.704 113.909 223.287 126.396 223.894C139.102 224.502 151.808 225.109 164.538 225.716C176.345 226.275 188.152 226.834 199.959 227.417C209.944 227.903 219.929 228.364 229.914 228.85C237.105 229.19 244.32 229.53 251.511 229.871C254.888 230.041 258.289 230.308 261.666 230.356C261.812 230.356 261.958 230.381 262.104 230.381C262.249 230.381 262.249 230.162 262.104 230.162C259.747 230.041 257.415 229.943 255.058 229.822C248.693 229.53 242.352 229.215 235.987 228.923C226.586 228.486 217.208 228.024 207.806 227.587C196.315 227.028 184.8 226.494 173.308 225.935C160.797 225.328 148.285 224.745 135.798 224.137C123.092 223.53 110.387 222.922 97.6564 222.315C85.8495 221.756 74.0425 221.198 62.2356 220.615C52.2507 220.129 42.2658 219.667 32.2809 219.181C25.0898 218.841 17.8744 218.501 10.6834 218.161C7.30647 217.991 3.90529 217.724 0.528398 217.675C0.382633 217.675 0.236868 217.651 0.0911031 217.651C-0.0303677 217.651 -0.0303677 217.869 0.0911031 217.869Z" fill="#192244"/>
</g>
</g>
<g opacity="0.7">
<g opacity="0.7">
<path opacity="0.7" d="M195.294 206.623C195.901 206.842 196.533 207.06 197.14 207.303C198.816 207.91 200.492 208.518 202.169 209.125C204.647 210.024 207.125 210.923 209.603 211.822C212.615 212.915 215.628 214.008 218.64 215.102C221.944 216.292 225.248 217.482 228.528 218.697C231.881 219.912 235.209 221.126 238.561 222.317C241.671 223.434 244.781 224.576 247.915 225.694C250.538 226.641 253.162 227.589 255.786 228.536C257.681 229.216 259.552 229.897 261.446 230.577C262.345 230.893 263.244 231.233 264.143 231.549C264.192 231.573 264.216 231.573 264.265 231.597C264.386 231.646 264.459 231.427 264.313 231.379C263.706 231.16 263.074 230.941 262.467 230.698C260.791 230.091 259.114 229.484 257.438 228.876C254.96 227.977 252.482 227.079 250.004 226.18C246.991 225.086 243.979 223.993 240.967 222.9C237.663 221.71 234.359 220.519 231.079 219.304C227.726 218.09 224.398 216.875 221.045 215.685C217.936 214.567 214.826 213.425 211.692 212.308C209.068 211.36 206.445 210.413 203.821 209.465C201.926 208.785 200.055 208.105 198.16 207.425C197.261 207.109 196.362 206.769 195.464 206.453C195.415 206.429 195.391 206.429 195.342 206.404C195.221 206.356 195.172 206.574 195.294 206.623Z" fill="#192244"/>
</g>
</g>
<g opacity="0.7">
<g opacity="0.7">
<path opacity="0.7" d="M123.36 181.795C124.428 182.184 125.522 182.572 126.591 182.961C129.166 183.884 131.717 184.807 134.292 185.755C137.402 186.872 140.487 187.99 143.597 189.132C146.269 190.104 148.966 191.075 151.638 192.047C152.537 192.363 153.411 192.679 154.31 193.019C154.723 193.165 155.136 193.383 155.574 193.48C155.598 193.48 155.598 193.505 155.622 193.505C155.744 193.553 155.817 193.335 155.671 193.286C154.602 192.897 153.509 192.509 152.44 192.12C149.864 191.197 147.314 190.274 144.738 189.326C141.629 188.209 138.543 187.091 135.434 185.949C132.761 184.978 130.065 184.006 127.392 183.034C126.493 182.718 125.619 182.402 124.72 182.062C124.307 181.916 123.894 181.698 123.457 181.601C123.432 181.601 123.432 181.576 123.408 181.576C123.287 181.528 123.238 181.746 123.36 181.795Z" fill="#192244"/>
</g>
</g>
<g opacity="0.1">
<g opacity="0.1">
<path opacity="0.1" d="M234.092 210.412C235.088 211.117 236.084 211.821 237.105 212.526C239.51 214.202 241.915 215.903 244.32 217.579C247.235 219.62 250.126 221.66 253.042 223.701C255.544 225.45 258.046 227.199 260.548 228.973C261.374 229.556 262.2 230.139 263.026 230.722C263.415 230.989 263.804 231.329 264.217 231.548C264.241 231.548 264.241 231.572 264.265 231.597C264.387 231.67 264.484 231.5 264.387 231.402C263.391 230.698 262.395 229.993 261.374 229.289C258.969 227.612 256.564 225.912 254.159 224.236C251.244 222.195 248.353 220.154 245.437 218.113C242.935 216.364 240.433 214.615 237.931 212.842C237.105 212.259 236.279 211.676 235.453 211.092C235.064 210.825 234.675 210.485 234.262 210.266C234.238 210.266 234.238 210.242 234.214 210.218C234.068 210.145 233.971 210.315 234.092 210.412Z" fill="#192244"/>
</g>
</g>
<g opacity="0.7">
<g opacity="0.7">
<path opacity="0.7" d="M196.655 184.125C197.651 184.83 198.672 185.535 199.668 186.239C202.073 187.915 204.478 189.616 206.859 191.292C209.75 193.333 212.665 195.374 215.556 197.39C218.058 199.164 220.585 200.913 223.087 202.686C223.913 203.269 224.715 203.828 225.541 204.411C225.93 204.678 226.318 205.018 226.731 205.237C226.756 205.237 226.756 205.261 226.78 205.286C226.901 205.359 226.999 205.189 226.901 205.091C225.905 204.387 224.885 203.682 223.889 202.978C221.484 201.301 219.079 199.601 216.698 197.925C213.807 195.884 210.892 193.843 208.001 191.827C205.498 190.053 202.972 188.304 200.469 186.531C199.643 185.948 198.842 185.389 198.016 184.806C197.627 184.538 197.238 184.198 196.825 183.98C196.801 183.98 196.801 183.955 196.777 183.931C196.655 183.858 196.534 184.053 196.655 184.125Z" fill="#192244"/>
</g>
</g>
<g opacity="0.7">
<g opacity="0.7">
<path opacity="0.7" d="M72.5116 205.289C72.7789 206.261 73.0461 207.257 73.3133 208.229C74.0422 210.901 74.771 213.574 75.4998 216.246C76.5688 220.182 77.6377 224.117 78.7066 228.077C80.0185 232.912 81.3304 237.722 82.6423 242.557C84.0757 247.829 85.509 253.076 86.9424 258.348C88.4 263.668 89.8334 269.013 91.291 274.333C92.6515 279.314 93.9877 284.27 95.3481 289.25C96.49 293.429 97.6318 297.632 98.7493 301.81C99.5753 304.823 100.377 307.835 101.203 310.848C101.592 312.281 101.956 313.714 102.369 315.148C102.393 315.22 102.393 315.269 102.418 315.342C102.466 315.488 102.661 315.415 102.636 315.293C102.369 314.322 102.102 313.326 101.835 312.354C101.106 309.681 100.377 307.009 99.6482 304.337C98.5793 300.401 97.5103 296.465 96.4414 292.505C95.1295 287.671 93.8176 282.861 92.5057 278.026C91.0724 272.754 89.639 267.507 88.2057 262.235C86.748 256.915 85.3147 251.57 83.857 246.249C82.4965 241.269 81.1604 236.313 79.7999 231.333C78.6581 227.154 77.5162 222.951 76.3987 218.773C75.5727 215.76 74.771 212.748 73.945 209.735C73.5563 208.302 73.1919 206.869 72.7789 205.435C72.7546 205.362 72.7546 205.314 72.7303 205.241C72.6817 205.095 72.463 205.144 72.5116 205.289Z" fill="#192244"/>
</g>
</g>
<g opacity="0.7">
<g opacity="0.7">
<path opacity="0.7" d="M111.383 210.388C111.601 211.19 111.82 211.967 112.039 212.769C112.622 214.931 113.205 217.069 113.788 219.231C114.638 222.39 115.513 225.572 116.363 228.73C117.408 232.617 118.477 236.48 119.521 240.367C120.663 244.594 121.829 248.846 122.971 253.073C124.137 257.373 125.303 261.649 126.469 265.949C127.563 269.958 128.631 273.942 129.725 277.95C130.648 281.327 131.547 284.68 132.47 288.057C133.126 290.486 133.782 292.891 134.438 295.321C134.754 296.462 135.045 297.629 135.385 298.77C135.41 298.819 135.41 298.868 135.434 298.916C135.482 299.062 135.677 298.989 135.652 298.868C135.434 298.066 135.215 297.289 134.997 296.487C134.413 294.325 133.83 292.187 133.247 290.025C132.397 286.866 131.522 283.684 130.672 280.526C129.628 276.638 128.559 272.776 127.514 268.889C126.372 264.661 125.206 260.41 124.064 256.183C122.898 251.883 121.732 247.607 120.566 243.307C119.473 239.298 118.404 235.314 117.31 231.306C116.387 227.929 115.488 224.576 114.565 221.199C113.909 218.77 113.253 216.365 112.597 213.935C112.281 212.793 111.99 211.627 111.65 210.485C111.626 210.437 111.626 210.388 111.601 210.34C111.553 210.194 111.334 210.243 111.383 210.388Z" fill="#192244"/>
</g>
</g>
<path d="M159.29 207.544C159.242 208.759 193.205 203.195 193.205 203.195C193.205 203.195 203.846 234.413 207.053 241.143C210.26 247.848 240.967 324.52 241.842 328.99C243.057 335.307 244.757 344.539 244.757 345.51L227.751 349.64C227.751 349.64 216.576 307.126 214.147 304.21C211.717 301.295 183.415 251.128 182.929 251.614C182.443 252.099 182.807 329.233 182.807 331.906C182.807 334.578 184.994 355.714 184.994 355.714H172.045C172.045 355.714 159.509 297.797 157.566 284.362C155.622 270.927 159.29 207.544 159.29 207.544Z" fill="#F5B900"/>
<path d="M174.985 229.043C174.961 229.334 175.106 229.65 175.179 229.917C175.349 230.5 175.544 231.108 175.714 231.691C176.297 233.489 176.928 235.286 177.536 237.06C178.265 239.149 179.018 241.238 179.771 243.328C180.427 245.125 181.058 246.899 181.714 248.697C181.933 249.28 182.152 249.863 182.346 250.446C182.443 250.713 182.516 251.029 182.662 251.272C182.662 251.272 182.662 251.296 182.686 251.32C182.735 251.442 182.953 251.393 182.905 251.272C182.638 250.567 182.395 249.863 182.127 249.158C181.52 247.458 180.888 245.757 180.281 244.081C179.528 241.992 178.775 239.927 178.046 237.837C177.39 235.991 176.734 234.12 176.127 232.25C175.908 231.594 175.689 230.938 175.495 230.282C175.374 229.917 175.252 229.529 175.204 229.164C175.204 229.14 175.204 229.116 175.204 229.067C175.204 228.897 174.985 228.897 174.985 229.043Z" fill="#192244"/>
<path d="M174.985 355.737C174.985 356.806 174.985 357.9 174.985 358.968C174.985 359.114 174.985 359.284 174.985 359.43C174.985 359.576 175.204 359.576 175.204 359.43C175.204 358.361 175.204 357.268 175.204 356.199C175.204 356.053 175.204 355.883 175.204 355.737C175.204 355.616 174.985 355.616 174.985 355.737Z" fill="#192244"/>
<path d="M182.856 355.642C182.71 355.666 182.758 355.934 182.734 356.031C182.734 356.322 182.734 356.614 182.734 356.905C182.734 357.586 182.758 358.266 182.758 358.97C182.758 359.14 182.758 359.286 182.758 359.456C182.758 359.602 182.977 359.602 182.977 359.456C182.953 358.412 182.928 357.343 182.928 356.298C182.928 356.176 182.928 356.055 182.928 355.934C182.928 355.909 182.953 355.861 182.928 355.812C182.928 355.812 182.928 355.812 182.928 355.788C182.904 355.763 182.953 355.812 182.856 355.836C183.05 355.812 183.001 355.593 182.856 355.642Z" fill="#192244"/>
<path d="M184.848 361.838C184.726 359.385 183.73 359.385 182.394 359.385H172.482C171.899 359.385 171.34 359.506 170.806 359.749L162.57 363.782C162.011 364.049 160.189 365.288 158.586 366.6C157.468 367.499 156.594 368.665 156.011 369.977L155.719 370.633C155.719 371.872 156.715 372.892 157.979 372.868L181.277 371.775C183.269 371.775 184.897 370.171 184.921 368.179C184.897 365.726 184.848 361.911 184.848 361.838Z" fill="#192244"/>
<path d="M233.898 348.182C234.117 349.834 234.335 351.486 234.578 353.138C234.603 353.381 234.651 353.6 234.676 353.843C234.7 353.989 234.894 353.916 234.894 353.794C234.676 352.142 234.457 350.49 234.214 348.838C234.19 348.595 234.141 348.377 234.117 348.134C234.092 347.988 233.898 348.036 233.898 348.182Z" fill="#192244"/>
<path d="M241.647 346.29C242.011 347.675 242.376 349.035 242.716 350.42C242.765 350.614 242.813 350.809 242.862 351.003C242.886 351.149 243.105 351.076 243.08 350.954C242.716 349.57 242.352 348.209 242.011 346.824C241.963 346.63 241.914 346.436 241.866 346.241C241.841 346.095 241.623 346.168 241.647 346.29Z" fill="#192244"/>
<path d="M233.194 353.48L242.741 351.123C244.588 350.662 246.458 351.779 246.968 353.601L248.135 357.853C248.693 359.942 247.6 362.129 245.584 362.906L224.472 371.069C223.427 371.458 222.286 370.899 221.97 369.83L222.018 368.469C222.043 367.765 222.164 367.085 222.431 366.429C223.257 364.412 224.448 362.347 224.812 361.934L230.619 355.083C231.274 354.282 232.173 353.723 233.194 353.48Z" fill="#192244"/>
<g opacity="0.7">
<g opacity="0.7">
<path opacity="0.7" d="M135.678 178.806C135.872 179.559 136.066 180.337 136.237 181.09C136.747 183.179 137.257 185.244 137.791 187.333C138.544 190.394 139.322 193.456 140.075 196.517C140.998 200.258 141.946 203.999 142.869 207.741C143.889 211.846 144.934 215.976 145.954 220.082C146.999 224.236 148.043 228.415 149.088 232.569C150.06 236.456 151.056 240.319 152.028 244.206C152.854 247.51 153.704 250.79 154.554 254.094C155.186 256.499 155.793 258.904 156.449 261.309C156.765 262.5 157.032 263.714 157.47 264.856C157.494 264.929 157.518 265.026 157.567 265.075C157.64 265.196 157.834 265.075 157.761 264.953C157.664 264.807 157.591 264.443 157.518 264.224C157.348 263.617 157.178 263.01 157.008 262.402C156.425 260.264 155.866 258.127 155.307 255.964C154.506 252.83 153.704 249.721 152.902 246.587C151.931 242.821 150.983 239.056 150.036 235.266C148.991 231.16 147.971 227.03 146.926 222.924C145.881 218.794 144.861 214.64 143.816 210.51C142.845 206.647 141.897 202.809 140.925 198.946C140.124 195.691 139.298 192.411 138.496 189.155C137.913 186.823 137.33 184.491 136.747 182.159C136.479 181.066 136.237 179.948 135.921 178.855C135.896 178.806 135.896 178.758 135.896 178.709C135.848 178.612 135.653 178.66 135.678 178.806Z" fill="#192244"/>
</g>
</g>
<path d="M184.702 145.012C184.775 144.987 184.872 144.987 184.945 144.963C184.921 144.89 184.896 144.817 184.896 144.744C184.07 145.084 183.22 145.376 182.345 145.643C181.932 145.765 181.519 145.886 181.082 145.983C180.863 146.032 180.62 146.08 180.402 146.129C180.305 146.153 180.207 146.178 180.11 146.202C180.037 146.226 179.989 146.226 179.916 146.251C179.794 146.226 179.77 146.251 179.819 146.323C179.77 146.348 179.746 146.348 179.697 146.372C180.548 146.493 181.422 146.566 182.272 146.639C183.171 146.712 184.07 146.736 184.969 146.639C185.115 146.615 185.115 146.396 184.969 146.421C184.095 146.518 183.244 146.493 182.37 146.421C181.495 146.348 180.62 146.275 179.77 146.153C179.722 146.153 179.673 146.153 179.649 146.202C179.576 146.275 179.6 146.396 179.697 146.445C179.819 146.518 180.013 146.445 180.159 146.421C180.718 146.299 181.276 146.178 181.811 146.032C182.88 145.74 183.949 145.4 184.993 144.963C185.115 144.914 185.066 144.72 184.945 144.744C184.872 144.769 184.775 144.769 184.702 144.793C184.508 144.817 184.556 145.036 184.702 145.012Z" fill="#192244"/>
<path d="M179.698 139.014C178.216 139.014 176.71 139.014 175.228 139.014C175.009 139.014 174.815 139.014 174.596 139.014C174.45 139.014 174.45 139.232 174.596 139.232C176.078 139.232 177.584 139.232 179.066 139.232C179.285 139.232 179.479 139.232 179.698 139.232C179.819 139.232 179.819 139.014 179.698 139.014Z" fill="#192244"/>
<path d="M179.843 146.204C178.361 144.236 176.855 142.268 175.446 140.227C175.155 139.814 174.839 139.425 174.62 138.964C174.571 138.867 174.426 138.915 174.426 139.012C174.426 141.928 174.426 144.843 174.426 147.734C174.426 148.147 174.426 148.56 174.426 148.973C174.426 149.07 174.523 149.095 174.596 149.07C176.126 148.269 177.633 147.467 179.163 146.665C179.382 146.544 179.6 146.422 179.819 146.325C179.94 146.252 179.843 146.082 179.698 146.131C178.167 146.932 176.661 147.734 175.13 148.536C174.912 148.657 174.693 148.779 174.474 148.876C174.523 148.9 174.596 148.949 174.644 148.973C174.644 146.058 174.644 143.142 174.644 140.251C174.644 139.838 174.644 139.425 174.644 139.012C174.571 139.037 174.499 139.061 174.45 139.061C174.644 139.45 174.912 139.79 175.155 140.13C175.568 140.713 176.005 141.32 176.418 141.903C177.292 143.118 178.191 144.309 179.09 145.499C179.285 145.766 179.479 146.033 179.673 146.276C179.746 146.422 179.94 146.325 179.843 146.204Z" fill="#192244"/>
<path d="M179.042 117.345C177.948 117.563 170.636 119.021 171.389 114.915C172.069 111.126 174.183 111.004 174.183 111.004C174.183 111.004 172.045 107.433 174.984 105.854C177.924 104.275 179.042 103.521 184.629 103.91C190.217 104.275 193.594 105.028 198.064 109.887C198.064 109.887 203.287 113.628 201.052 120.333C201.052 120.333 200.299 123.686 198.428 125.921C198.428 125.921 198.428 121.815 196.193 122.179C196.193 122.179 193.958 122.544 193.205 124.414C193.205 124.414 193.569 119.944 193.205 118.074C192.841 116.203 192.719 113.506 187.374 114.843C182.03 116.227 181.835 116.786 179.042 117.345Z" fill="#192244"/>
<path d="M195.538 128.564C195.489 131.163 193.4 133.496 190.825 133.884C190.776 133.884 190.752 133.957 190.752 133.982C190.8 136.265 190.776 138.573 190.825 140.857C190.825 141.003 191.043 141.003 191.043 140.857C190.995 138.573 191.019 136.265 190.97 133.982C190.946 134.006 190.922 134.054 190.898 134.079C193.57 133.69 195.708 131.261 195.756 128.564C195.756 128.418 195.538 128.418 195.538 128.564Z" fill="#192244"/>
<path d="M180.427 129.901C180.402 129.853 180.499 129.829 180.499 129.829C180.548 129.829 180.597 129.853 180.645 129.877C180.718 129.926 180.767 129.974 180.84 130.023C180.961 130.096 181.083 130.169 181.228 130.217C181.496 130.314 181.787 130.387 182.079 130.387C182.662 130.387 183.245 130.193 183.658 129.804C183.755 129.707 183.609 129.561 183.512 129.659C183.002 130.144 182.224 130.29 181.544 130.12C181.374 130.072 181.228 130.023 181.083 129.926C180.937 129.853 180.815 129.731 180.67 129.659C180.548 129.61 180.402 129.61 180.305 129.731C180.208 129.829 180.208 129.974 180.305 130.072C180.378 130.169 180.524 130.023 180.427 129.901Z" fill="#192244"/>
<path d="M180.718 123.945C180.524 124.407 180.329 124.868 180.135 125.33C180.038 125.573 179.94 125.792 179.843 126.034C179.77 126.229 179.649 126.447 179.673 126.666C179.697 127.322 180.548 127.444 181.058 127.444C181.204 127.444 181.204 127.225 181.058 127.225C180.791 127.225 180.499 127.201 180.232 127.103C179.916 126.958 179.819 126.69 179.94 126.375C180.232 125.573 180.596 124.795 180.912 124.018C180.985 123.872 180.791 123.799 180.718 123.945Z" fill="#192244"/>
<path d="M180.135 135.517C180.135 137.557 179.601 139.549 179.212 141.542C179.188 141.687 179.406 141.736 179.431 141.59C179.819 139.574 180.354 137.557 180.354 135.517C180.354 135.395 180.135 135.395 180.135 135.517Z" fill="#192244"/>
<path d="M184.678 122.539C184.435 122.515 184.265 122.709 184.192 122.928C184.12 123.147 184.217 123.414 184.362 123.56C184.533 123.73 184.775 123.827 184.994 123.778C185.213 123.73 185.383 123.584 185.48 123.389C185.577 123.171 185.553 122.952 185.407 122.758C185.286 122.612 185.067 122.515 184.873 122.515C184.654 122.515 184.411 122.661 184.387 122.904C184.338 123.195 184.63 123.365 184.897 123.317C185.018 123.292 185.14 123.195 185.164 123.049C185.188 122.928 185.164 122.806 185.091 122.709C184.994 122.612 184.848 122.612 184.727 122.685C184.605 122.758 184.557 122.904 184.605 123.025C184.63 123.074 184.703 123.098 184.751 123.074C184.8 123.049 184.824 122.976 184.8 122.928C184.8 122.952 184.8 122.928 184.8 122.928C184.8 122.904 184.8 122.928 184.8 122.904C184.8 122.879 184.824 122.879 184.848 122.855C184.897 122.831 184.921 122.855 184.921 122.904C184.946 122.952 184.921 123.001 184.897 123.049C184.848 123.098 184.775 123.122 184.703 123.098C184.654 123.098 184.557 123.049 184.557 123.001C184.533 122.928 184.581 122.855 184.63 122.806C184.703 122.734 184.848 122.709 184.945 122.734C185.067 122.758 185.188 122.831 185.237 122.928C185.31 123.049 185.286 123.195 185.213 123.292C185.14 123.414 185.043 123.511 184.897 123.535C184.751 123.56 184.605 123.511 184.508 123.414C184.387 123.317 184.314 123.147 184.338 122.976C184.362 122.904 184.387 122.831 184.435 122.782C184.484 122.734 184.533 122.709 184.605 122.709C184.654 122.709 184.727 122.661 184.727 122.588C184.8 122.588 184.751 122.539 184.678 122.539Z" fill="#192244"/>
<path d="M187.545 123.413C187.423 124.7 186.767 126.206 185.455 126.692C184.216 127.154 183.074 126.352 182.564 125.259C181.957 123.971 182.054 122.344 182.734 121.08C183.317 120.036 184.484 119.185 185.698 119.647C187.18 120.182 187.666 122.004 187.545 123.413C187.545 123.558 187.763 123.558 187.763 123.413C187.86 122.028 187.423 120.376 186.16 119.623C184.994 118.943 183.658 119.477 182.88 120.497C181.933 121.736 181.69 123.583 182.248 125.04C182.686 126.231 183.755 127.251 185.115 127.032C186.767 126.741 187.617 124.943 187.763 123.437C187.788 123.267 187.569 123.267 187.545 123.413Z" fill="#192244"/>
<path d="M176.879 121.98C176.636 121.956 176.466 122.15 176.393 122.369C176.321 122.587 176.418 122.854 176.563 123C176.734 123.17 176.977 123.267 177.195 123.219C177.414 123.17 177.584 123.025 177.681 122.83C177.778 122.612 177.754 122.393 177.608 122.199C177.487 122.053 177.268 121.956 177.074 121.956C176.855 121.956 176.612 122.101 176.588 122.344C176.539 122.636 176.831 122.806 177.098 122.757C177.219 122.733 177.341 122.636 177.365 122.49C177.389 122.369 177.365 122.247 177.292 122.15C177.195 122.053 177.049 122.053 176.928 122.126C176.806 122.199 176.758 122.344 176.806 122.466C176.831 122.514 176.904 122.539 176.952 122.514C177.001 122.49 177.025 122.417 177.001 122.369C177.001 122.393 177.001 122.369 177.001 122.369C177.001 122.344 177.001 122.369 177.001 122.344C177.001 122.32 177.025 122.32 177.049 122.296C177.098 122.271 177.122 122.296 177.122 122.344C177.147 122.393 177.122 122.441 177.098 122.49C177.049 122.539 176.977 122.563 176.904 122.539C176.855 122.539 176.758 122.49 176.758 122.441C176.734 122.369 176.782 122.296 176.831 122.247C176.904 122.174 177.049 122.15 177.147 122.174C177.268 122.199 177.39 122.271 177.438 122.369C177.511 122.49 177.487 122.636 177.414 122.733C177.341 122.854 177.244 122.952 177.098 122.976C176.952 123 176.806 122.952 176.709 122.854C176.588 122.757 176.515 122.587 176.539 122.417C176.564 122.344 176.588 122.271 176.636 122.223C176.685 122.174 176.734 122.15 176.806 122.15C176.855 122.15 176.928 122.101 176.928 122.028C176.976 122.028 176.928 121.98 176.879 121.98Z" fill="#192244"/>
<path d="M179.747 122.853C179.625 124.141 178.969 125.647 177.657 126.133C176.418 126.595 175.277 125.793 174.766 124.7C174.159 123.412 174.256 121.784 174.936 120.521C175.519 119.476 176.686 118.626 177.9 119.088C179.358 119.622 179.844 121.444 179.747 122.853C179.747 122.999 179.965 122.999 179.965 122.853C180.062 121.469 179.625 119.817 178.362 119.063C177.196 118.383 175.86 118.918 175.082 119.938C174.135 121.177 173.892 123.023 174.451 124.481C174.888 125.671 175.957 126.692 177.317 126.473C178.969 126.182 179.82 124.384 179.965 122.878C179.965 122.708 179.747 122.708 179.747 122.853Z" fill="#192244"/>
<path d="M176.88 120.791C177.39 120.719 177.924 120.767 178.41 120.937C178.556 120.986 178.605 120.767 178.459 120.719C177.949 120.549 177.414 120.5 176.88 120.573C176.831 120.573 176.783 120.621 176.758 120.694C176.783 120.719 176.831 120.791 176.88 120.791Z" fill="#192244"/>
<path d="M183.803 121.372C184.508 121.299 185.237 121.348 185.941 121.493C186.087 121.518 186.135 121.323 185.99 121.275C185.261 121.129 184.532 121.08 183.803 121.129C183.657 121.178 183.657 121.396 183.803 121.372Z" fill="#192244"/>
<path d="M179.819 123.538C179.99 123.441 180.184 123.344 180.378 123.271C180.718 123.15 181.131 123.052 181.496 123.15C181.714 123.222 181.884 123.368 181.982 123.563C182.055 123.684 182.225 123.587 182.176 123.441C181.739 122.591 180.645 122.882 179.941 123.198C179.868 123.247 179.771 123.271 179.698 123.32C179.577 123.417 179.698 123.611 179.819 123.538Z" fill="#192244"/>
<path d="M194.006 128.13C194.857 128.567 195.877 128.859 196.824 128.543C197.189 128.422 197.553 128.179 197.82 127.887C198.136 127.523 198.233 127.11 198.306 126.624C198.331 126.478 198.112 126.43 198.088 126.575C198.015 126.988 197.942 127.401 197.65 127.741C197.407 128.033 197.067 128.252 196.703 128.349C195.828 128.64 194.905 128.349 194.128 127.96C193.982 127.887 193.86 128.057 194.006 128.13Z" fill="#192244"/>
<path d="M187.885 122.636C188.347 122.636 188.809 122.733 189.246 122.806C189.902 122.928 190.533 123.073 191.165 123.219C191.991 123.413 192.793 123.608 193.594 123.802C193.74 123.826 193.789 123.632 193.643 123.583C192.817 123.365 191.967 123.17 191.141 122.976C190.509 122.83 189.853 122.685 189.222 122.563C188.784 122.49 188.323 122.393 187.861 122.393C187.764 122.417 187.764 122.636 187.885 122.636Z" fill="#192244"/>
<path d="M174.864 125.309C174.767 126.621 174.742 127.957 174.888 129.269C175.01 130.435 175.301 131.625 175.908 132.621C177.123 134.589 179.407 135.61 181.618 135.974C183.172 136.241 184.727 136.217 186.282 136.217C186.428 136.217 186.428 135.998 186.282 135.998C183.78 136.023 181.132 136.023 178.824 134.881C177.852 134.395 176.929 133.715 176.297 132.816C175.593 131.82 175.253 130.654 175.107 129.463C174.937 128.103 174.961 126.669 175.058 125.309C175.082 125.163 174.864 125.163 174.864 125.309Z" fill="#192244"/>
<g opacity="0.39">
<g opacity="0.39">
<path opacity="0.39" d="M176.904 118.82C176.71 119.33 176.418 119.768 176.175 120.253C175.908 120.764 175.689 121.298 175.519 121.833C175.155 122.95 174.985 124.141 174.888 125.307C174.888 125.452 175.106 125.452 175.106 125.307C175.203 124.116 175.373 122.926 175.762 121.784C175.957 121.225 176.199 120.666 176.491 120.132C176.71 119.719 176.953 119.306 177.123 118.869C177.147 118.747 176.953 118.699 176.904 118.82Z" fill="#192244"/>
</g>
</g>
<g opacity="0.7">
<path opacity="0.7" d="M227.655 209.928C290.163 205.773 334.986 194.501 334.986 181.26V87.655C334.986 96.4981 314.992 104.467 283.094 110.03C267.303 112.775 248.596 114.937 227.946 116.322L227.655 209.928Z" fill="#D6D8E5"/>
</g>
<g opacity="0.4">
<path opacity="0.4" d="M14.3027 87.6537C14.3027 78.6891 35.7059 70.2833 68.3329 64.72L68.8188 110.466C35.4144 104.903 14.3027 96.764 14.3027 87.6537Z" fill="#D6D8E5"/>
</g>
<g opacity="0.4">
<path opacity="0.4" d="M282.608 65.2034C314.797 70.7667 334.986 78.7595 334.986 87.6512C334.986 96.4942 314.992 104.463 283.093 110.026L282.608 65.2034Z" fill="#D6D8E5"/>
</g>
<path d="M265.432 150.988C265.432 152.081 265.432 153.15 265.432 154.243C265.432 156.843 265.432 159.442 265.432 162.042C265.432 165.176 265.432 168.31 265.432 171.444C265.432 174.165 265.432 176.861 265.432 179.582C265.432 180.894 265.408 182.23 265.432 183.567C265.432 183.591 265.432 183.591 265.432 183.615C265.432 184.198 265.942 184.733 266.525 184.708C267.108 184.684 267.618 184.222 267.618 183.615C267.618 182.522 267.618 181.453 267.618 180.36C267.618 177.76 267.618 175.161 267.618 172.561C267.618 169.427 267.618 166.293 267.618 163.159C267.618 160.438 267.618 157.742 267.618 155.021C267.618 153.709 267.643 152.373 267.618 151.037C267.618 151.012 267.618 151.012 267.618 150.988C267.618 150.405 267.108 149.871 266.525 149.895C265.942 149.919 265.432 150.381 265.432 150.988Z" fill="#182244"/>
<path d="M273.279 142.802C273.279 144.113 273.279 145.425 273.279 146.737C273.279 149.895 273.279 153.054 273.279 156.188C273.279 159.978 273.279 163.767 273.279 167.557C273.279 170.861 273.279 174.141 273.279 177.445C273.279 179.048 273.23 180.652 273.279 182.231C273.279 182.255 273.279 182.28 273.279 182.304C273.279 182.887 273.789 183.421 274.372 183.397C274.955 183.373 275.465 182.911 275.465 182.304C275.465 180.992 275.465 179.68 275.465 178.368C275.465 175.21 275.465 172.052 275.465 168.918C275.465 165.128 275.465 161.338 275.465 157.548C275.465 154.244 275.465 150.964 275.465 147.66C275.465 146.057 275.514 144.454 275.465 142.874C275.465 142.85 275.465 142.826 275.465 142.802C275.465 142.218 274.955 141.684 274.372 141.708C273.789 141.733 273.279 142.194 273.279 142.802Z" fill="#3F4FD3"/>
<path d="M281.126 131.164C281.126 131.601 281.126 132.038 281.126 132.476C281.126 133.666 281.126 134.881 281.126 136.071C281.126 137.845 281.126 139.643 281.126 141.416C281.126 143.578 281.126 145.74 281.126 147.927C281.126 150.308 281.126 152.664 281.126 155.045C281.126 157.45 281.126 159.831 281.126 162.236C281.126 164.471 281.126 166.706 281.126 168.941C281.126 170.836 281.126 172.731 281.126 174.602C281.126 175.962 281.126 177.323 281.126 178.683C281.126 179.339 281.126 179.971 281.126 180.627C281.126 180.651 281.126 180.675 281.126 180.7C281.126 181.283 281.636 181.817 282.219 181.793C282.802 181.769 283.312 181.307 283.312 180.7C283.312 180.262 283.312 179.825 283.312 179.388C283.312 178.197 283.312 176.983 283.312 175.792C283.312 174.019 283.312 172.221 283.312 170.447C283.312 168.285 283.312 166.123 283.312 163.937C283.312 161.556 283.312 159.199 283.312 156.818C283.312 154.413 283.312 152.033 283.312 149.627C283.312 147.392 283.312 145.157 283.312 142.922C283.312 141.027 283.312 139.132 283.312 137.262C283.312 135.901 283.312 134.541 283.312 133.18C283.312 132.524 283.312 131.893 283.312 131.237C283.312 131.212 283.312 131.188 283.312 131.164C283.312 130.581 282.802 130.046 282.219 130.071C281.636 130.095 281.126 130.557 281.126 131.164Z" fill="#3F4FD3"/>
<path d="M288.973 156.867C288.973 157.62 288.973 158.398 288.973 159.151C288.973 160.973 288.973 162.795 288.973 164.617C288.973 166.828 288.973 169.038 288.973 171.225C288.973 173.12 288.973 175.039 288.973 176.934C288.973 177.857 288.948 178.78 288.973 179.703C288.973 179.728 288.973 179.728 288.973 179.752C288.973 180.335 289.483 180.87 290.066 180.845C290.649 180.821 291.159 180.359 291.159 179.752C291.159 178.999 291.159 178.222 291.159 177.468C291.159 175.646 291.159 173.824 291.159 172.002C291.159 169.791 291.159 167.581 291.159 165.394C291.159 163.499 291.159 161.58 291.159 159.685C291.159 158.762 291.183 157.839 291.159 156.916C291.159 156.891 291.159 156.891 291.159 156.867C291.159 156.284 290.649 155.749 290.066 155.774C289.483 155.798 288.973 156.26 288.973 156.867Z" fill="#F5B900"/>
<path d="M296.821 150.866C296.821 151.79 296.821 152.737 296.821 153.66C296.821 155.871 296.821 158.106 296.821 160.317C296.821 163.014 296.821 165.686 296.821 168.383C296.821 170.715 296.821 173.047 296.821 175.379C296.821 176.497 296.796 177.639 296.821 178.756C296.821 178.78 296.821 178.78 296.821 178.805C296.821 179.388 297.331 179.922 297.914 179.898C298.497 179.874 299.007 179.412 299.007 178.805C299.007 177.882 299.007 176.934 299.007 176.011C299.007 173.8 299.007 171.565 299.007 169.354C299.007 166.658 299.007 163.985 299.007 161.289C299.007 158.956 299.007 156.624 299.007 154.292C299.007 153.174 299.031 152.033 299.007 150.915C299.007 150.891 299.007 150.891 299.007 150.866C299.007 150.283 298.497 149.749 297.914 149.773C297.331 149.798 296.821 150.259 296.821 150.866Z" fill="#182244"/>
<path d="M304.667 151.161C304.667 152.011 304.667 152.837 304.667 153.688C304.667 155.704 304.667 157.721 304.667 159.761C304.667 162.215 304.667 164.669 304.667 167.122C304.667 169.236 304.667 171.325 304.667 173.439C304.667 174.459 304.642 175.504 304.667 176.549C304.667 176.573 304.667 176.573 304.667 176.597C304.667 177.18 305.177 177.715 305.76 177.69C306.343 177.666 306.853 177.205 306.853 176.597C306.853 175.747 306.853 174.921 306.853 174.071C306.853 172.054 306.853 170.038 306.853 167.997C306.853 165.543 306.853 163.09 306.853 160.636C306.853 158.522 306.853 156.433 306.853 154.319C306.853 153.299 306.877 152.254 306.853 151.21C306.853 151.185 306.853 151.185 306.853 151.161C306.853 150.578 306.343 150.044 305.76 150.068C305.177 150.092 304.667 150.554 304.667 151.161Z" fill="#009DDB"/>
<g opacity="0.5">
<g opacity="0.5">
<path opacity="0.5" d="M264.169 214.055C256.443 214.055 250.199 220.784 250.199 229.093C250.199 237.402 256.443 244.131 264.169 244.131C271.894 244.131 278.138 237.402 278.138 229.093C278.138 220.784 271.894 214.055 264.169 214.055ZM264.169 240.633C258.265 240.633 253.479 235.482 253.479 229.117C253.479 222.752 258.265 217.602 264.169 217.602C270.072 217.602 274.858 222.752 274.858 229.117C274.858 235.482 270.072 240.633 264.169 240.633Z" fill="#3F4FD3"/>
</g>
<g opacity="0.5">
<path opacity="0.5" d="M264.168 231.4C265.349 231.4 266.306 230.377 266.306 229.116C266.306 227.855 265.349 226.833 264.168 226.833C262.987 226.833 262.03 227.855 262.03 229.116C262.03 230.377 262.987 231.4 264.168 231.4Z" fill="#3F4FD3"/>
</g>
</g>
<path d="M229.768 203.39C232.756 206.889 235.72 210.387 238.709 213.91C238.976 214.226 239.243 214.541 239.365 214.954C239.535 215.489 239.389 216.072 239.292 216.631C238.709 219.425 238.611 222.413 239.826 225.012C240.312 226.081 241.017 227.053 241.697 228C242.839 229.579 244.029 231.207 245.681 232.252C245.924 230.551 245.851 228.826 245.487 227.15C249.277 226.275 253.431 227.101 256.613 229.337C257.439 229.92 258.241 230.6 259.237 230.77C260.233 230.94 261.448 230.284 261.399 229.264C261.375 228.389 260.476 227.83 259.723 227.417C248.791 221.392 240.846 210.849 235.939 199.382" fill="white"/>
<path d="M229.695 203.466C231.299 205.337 232.878 207.208 234.481 209.078C235.283 210.026 236.085 210.949 236.862 211.896C237.251 212.358 237.639 212.82 238.028 213.281C238.417 213.743 238.878 214.18 239.146 214.715C239.461 215.298 239.291 215.954 239.17 216.585C239.073 217.095 238.976 217.581 238.903 218.091C238.757 219.16 238.708 220.254 238.781 221.347C238.854 222.392 239.073 223.436 239.437 224.432C239.826 225.453 240.409 226.376 241.016 227.275C242.304 229.121 243.664 231.089 245.584 232.328C245.632 232.352 245.729 232.328 245.754 232.255C245.997 230.53 245.924 228.805 245.559 227.105C245.535 227.153 245.511 227.202 245.486 227.25C247.479 226.789 249.568 226.813 251.56 227.25C253.576 227.688 255.374 228.587 257.026 229.777C257.755 230.311 258.605 230.919 259.553 230.895C260.233 230.895 260.986 230.554 261.326 229.923C262.201 228.271 259.577 227.25 258.532 226.619C255.253 224.675 252.216 222.294 249.495 219.598C246.75 216.901 244.296 213.889 242.134 210.682C239.996 207.499 238.15 204.122 236.57 200.624C236.376 200.187 236.182 199.749 235.987 199.312C235.939 199.191 235.744 199.288 235.793 199.434C237.275 202.883 239 206.236 241.016 209.418C243.008 212.552 245.268 215.541 247.819 218.262C250.345 220.958 253.163 223.412 256.224 225.477C257.002 226.011 257.804 226.497 258.605 226.983C259.358 227.42 260.257 227.785 260.84 228.441C261.156 228.781 261.326 229.267 261.156 229.728C261.01 230.117 260.646 230.409 260.282 230.579C259.334 230.967 258.387 230.53 257.585 229.996C256.759 229.437 255.981 228.854 255.107 228.368C254.281 227.931 253.406 227.566 252.483 227.323C250.612 226.789 248.645 226.619 246.725 226.862C246.264 226.91 245.827 227.007 245.365 227.105C245.316 227.129 245.268 227.177 245.292 227.25C245.632 228.902 245.705 230.603 245.486 232.279C245.535 232.255 245.584 232.231 245.656 232.206C243.883 231.065 242.644 229.291 241.429 227.59C240.773 226.667 240.117 225.72 239.68 224.651C239.267 223.655 239.048 222.562 238.951 221.493C238.854 220.424 238.903 219.355 239.048 218.286C239.121 217.727 239.219 217.168 239.34 216.61C239.437 216.099 239.559 215.565 239.413 215.055C239.291 214.593 238.976 214.229 238.66 213.864C238.271 213.403 237.882 212.941 237.494 212.48C236.692 211.532 235.89 210.609 235.113 209.661C233.339 207.572 231.566 205.483 229.768 203.394C229.744 203.199 229.598 203.345 229.695 203.466Z" fill="#192244"/>
<path d="M192.793 204.293C193.328 200.309 193.862 196.349 194.397 192.365C195.369 185.174 196.34 177.958 198.211 170.937C198.308 170.573 198.43 170.16 198.721 169.941C199.377 169.455 200.276 169.99 200.883 170.524C202.438 171.861 203.993 173.197 205.548 174.557C214.464 182.258 219.347 195.062 227.364 203.564L228.214 204.415C228.384 204.585 229.55 203.419 229.793 203.443C230.012 203.443 230.231 203.297 230.401 203.176C232.879 201.305 235.673 199.823 238.588 198.803C238.855 198.706 239.147 198.608 239.244 198.341C239.39 198.001 239.122 197.612 238.879 197.345L238.272 196.519C230.012 183.4 222.894 168.338 215.193 157.794C213.686 155.729 212.156 153.64 210.309 151.842C206.447 148.15 201.223 145.914 195.879 145.696" fill="white"/>
<path d="M192.889 204.315C193.739 197.999 194.541 191.682 195.464 185.39C195.926 182.28 196.436 179.195 197.092 176.11C197.408 174.579 197.772 173.049 198.161 171.518C198.331 170.886 198.452 169.866 199.278 169.842C199.983 169.817 200.615 170.401 201.101 170.814C203.287 172.708 205.571 174.506 207.587 176.571C209.336 178.345 210.915 180.313 212.373 182.329C215.386 186.459 217.985 190.905 220.803 195.156C222.188 197.221 223.621 199.262 225.176 201.181C225.856 202.032 226.585 202.882 227.338 203.659C227.581 203.902 227.824 204.145 228.067 204.388C228.237 204.534 228.359 204.51 228.529 204.388C228.869 204.194 229.16 203.902 229.476 203.684C229.573 203.611 229.67 203.538 229.768 203.513C229.889 203.489 229.986 203.489 230.108 203.441C230.302 203.343 230.448 203.222 230.618 203.1C231.76 202.25 232.974 201.497 234.238 200.817C235.525 200.112 236.886 199.505 238.271 199.019C238.684 198.873 239.364 198.728 239.412 198.169C239.437 197.756 239.097 197.416 238.878 197.1C238.246 196.274 237.712 195.375 237.177 194.5C236.4 193.237 235.647 191.974 234.894 190.71C233.387 188.16 231.93 185.584 230.472 183.009C227.654 177.98 224.885 172.927 221.921 167.971C219.175 163.38 216.284 158.837 212.956 154.634C211.231 152.471 209.263 150.552 206.931 149.07C204.72 147.661 202.242 146.641 199.667 146.082C198.428 145.815 197.165 145.645 195.902 145.596C195.756 145.596 195.756 145.815 195.902 145.815C201.246 146.033 206.47 148.269 210.332 152.01C212.397 154.026 214.098 156.407 215.774 158.764C217.256 160.853 218.665 163.015 220.001 165.202C222.941 169.963 225.662 174.871 228.407 179.754C231.274 184.856 234.116 189.982 237.202 194.962C237.712 195.788 238.198 196.59 238.781 197.367C238.927 197.561 239.097 197.731 239.169 197.95C239.34 198.46 238.854 198.606 238.489 198.752C237.833 198.995 237.177 199.238 236.546 199.505C235.258 200.064 233.995 200.72 232.78 201.448C232.173 201.813 231.565 202.226 230.958 202.639C230.667 202.833 230.399 203.1 230.108 203.246C229.938 203.343 229.743 203.319 229.573 203.416C229.233 203.611 228.966 203.878 228.65 204.097C228.553 204.169 228.407 204.315 228.286 204.315C228.237 204.315 228.334 204.339 228.237 204.291C228.189 204.267 228.116 204.169 228.067 204.121C227.435 203.489 226.828 202.858 226.245 202.177C224.617 200.307 223.16 198.29 221.751 196.25C218.884 192.071 216.333 187.674 213.442 183.519C212.033 181.503 210.527 179.511 208.875 177.689C207.053 175.672 204.988 173.947 202.947 172.174C202.34 171.64 201.732 171.129 201.125 170.595C200.688 170.206 200.226 169.817 199.643 169.672C199.181 169.55 198.72 169.672 198.404 170.06C198.015 170.571 197.942 171.324 197.797 171.931C197.043 174.944 196.436 177.98 195.902 181.017C194.857 187.212 194.104 193.431 193.254 199.651C193.059 201.181 192.841 202.712 192.646 204.242C192.67 204.388 192.865 204.461 192.889 204.315Z" fill="#192244"/>
<path d="M127.783 166.635C124.041 161.096 119.62 154.391 115.028 149.532C114.372 148.852 113.716 148.147 112.915 147.637C110.291 145.961 107.351 146.641 105.019 144.625C103.561 143.362 102.93 141.345 102.905 139.402C102.881 137.458 102.93 136.802 103.464 134.931C101.666 133.571 99.7714 132.769 97.9979 131.409C97.342 130.899 96.6131 130.267 96.6374 129.441C96.6617 129.198 96.7589 128.931 96.9776 128.809C97.1962 128.688 97.4634 128.785 97.7064 128.858C100.427 129.757 102.662 131.044 105.165 132.429C107.327 133.644 109.489 134.931 111.263 136.656C112.842 138.163 114.129 139.985 115.611 141.588C116.972 143.07 118.502 144.406 120.033 145.718C125.11 150.091 130.285 154.391 135.508 158.594" fill="white"/>
<path d="M127.878 166.562C124.574 161.679 121.319 156.747 117.553 152.204C116.63 151.087 115.683 150.018 114.662 148.973C113.691 147.977 112.622 147.175 111.286 146.738C110.047 146.325 108.735 146.179 107.496 145.791C106.159 145.378 104.945 144.649 104.167 143.483C103.317 142.219 103.025 140.689 103.001 139.183C103.001 138.502 103.001 137.822 103.074 137.142C103.171 136.413 103.341 135.684 103.56 134.955C103.584 134.907 103.56 134.858 103.511 134.834C102.005 133.692 100.28 132.866 98.7254 131.821C98.0695 131.36 97.2192 130.85 96.8548 130.097C96.6604 129.659 96.6118 128.809 97.2921 128.882C97.7294 128.93 98.191 129.149 98.604 129.295C100.329 129.951 101.981 130.801 103.584 131.7C105.188 132.599 106.791 133.473 108.322 134.494C109.852 135.514 111.237 136.705 112.452 138.089C113.691 139.474 114.808 140.98 116.096 142.317C117.432 143.701 118.914 144.965 120.372 146.204C121.902 147.515 123.433 148.803 124.963 150.091C128.024 152.666 131.134 155.217 134.243 157.743C134.632 158.059 135.021 158.375 135.41 158.667C135.507 158.764 135.677 158.594 135.555 158.521C132.276 155.897 129.02 153.225 125.789 150.504C124.186 149.143 122.582 147.783 120.979 146.422C119.424 145.11 117.869 143.798 116.46 142.341C115.075 140.956 113.909 139.377 112.622 137.919C111.358 136.486 109.925 135.271 108.346 134.227C106.743 133.158 105.042 132.234 103.366 131.311C101.714 130.412 100.013 129.562 98.2395 128.93C97.8994 128.809 97.4621 128.59 97.0977 128.663C96.7819 128.712 96.5632 128.979 96.5147 129.295C96.3689 130.024 96.8791 130.655 97.3892 131.093C98.7983 132.356 100.572 133.182 102.175 134.178C102.588 134.445 103.001 134.712 103.39 135.028C103.366 134.98 103.366 134.955 103.341 134.907C103.001 136.097 102.783 137.263 102.783 138.527C102.758 139.863 102.855 141.175 103.341 142.438C103.827 143.628 104.629 144.649 105.746 145.305C106.864 145.985 108.152 146.228 109.415 146.495C110.8 146.787 112.136 147.175 113.278 148.026C114.444 148.9 115.416 150.091 116.363 151.184C118.355 153.468 120.201 155.897 121.951 158.375C123.918 161.12 125.789 163.914 127.66 166.684C127.781 166.805 127.951 166.684 127.878 166.562Z" fill="#192244"/>
<g opacity="0.4">
<g opacity="0.4">
<path opacity="0.4" d="M96.296 97.4663C79.9946 97.4663 66.7786 111.703 66.7786 129.267C66.7786 146.832 79.9946 161.068 96.296 161.068C112.597 161.068 125.813 146.832 125.813 129.267C125.813 111.703 112.597 97.4663 96.296 97.4663ZM96.296 153.61C83.8088 153.61 73.7024 142.702 73.7024 129.267C73.7024 115.833 83.8088 104.925 96.296 104.925C108.783 104.925 118.89 115.833 118.89 129.267C118.89 142.702 108.783 153.61 96.296 153.61Z" fill="#3F4FD3"/>
</g>
<g opacity="0.4">
<path opacity="0.4" d="M96.2957 134.105C98.7779 134.105 100.79 131.941 100.79 129.271C100.79 126.601 98.7779 124.436 96.2957 124.436C93.8135 124.436 91.8013 126.601 91.8013 129.271C91.8013 131.941 93.8135 134.105 96.2957 134.105Z" fill="#3F4FD3"/>
</g>
</g>
<path d="M135.92 157.669C135.701 157.961 135.458 158.179 135.191 158.422C134.875 158.714 134.656 159.078 134.389 159.418C133.782 160.172 133.126 160.876 132.47 161.605C131.085 163.135 129.725 164.666 128.34 166.196C127.563 167.071 126.785 167.946 125.983 168.82C125.935 168.869 125.935 168.942 125.983 168.966C127.927 170.958 130.113 172.707 132.227 174.505C133.296 175.404 134.316 176.327 135.312 177.323C136.187 178.198 137.037 179.145 138.106 179.777C140.463 181.21 143.208 180.433 145.565 179.388C148.286 178.174 150.861 176.594 153.46 175.137C154.894 174.335 156.351 173.533 157.785 172.707C159.048 172.003 160.287 171.201 161.234 170.108C161.161 170.084 161.113 170.035 161.04 170.011C160.214 172.416 159.655 174.918 159.145 177.396C158.635 179.898 158.052 182.401 157.469 184.879C156.327 189.762 155.379 194.888 156.521 199.844C157.129 202.565 158.343 205.116 159.607 207.594C159.679 207.715 159.85 207.618 159.801 207.472C158.683 205.286 157.614 203.026 156.959 200.646C156.278 198.192 156.133 195.641 156.303 193.114C156.473 190.564 156.959 188.037 157.542 185.559C158.1 183.105 158.708 180.676 159.218 178.222C159.777 175.477 160.36 172.707 161.283 170.035C161.307 169.938 161.161 169.841 161.089 169.938C160.238 170.91 159.145 171.638 158.052 172.294C156.837 172.999 155.598 173.679 154.359 174.384C151.832 175.817 149.33 177.299 146.731 178.611C144.374 179.777 141.41 181.113 138.811 179.898C137.669 179.364 136.746 178.441 135.871 177.542C134.948 176.594 133.952 175.695 132.956 174.821C130.672 172.829 128.267 170.982 126.154 168.796C126.154 168.845 126.154 168.893 126.154 168.942C127.563 167.387 128.972 165.808 130.356 164.253C131.717 162.747 133.126 161.289 134.389 159.71C134.705 159.321 134.972 158.884 135.337 158.544C135.604 158.277 135.871 158.058 136.114 157.742C136.187 157.645 135.993 157.548 135.92 157.669Z" fill="#192244"/>
<path d="M135.872 158.327C138.058 159.76 140.245 161.169 142.407 162.602C142.893 162.918 143.403 163.355 143.938 163.574C144.375 163.768 144.715 163.55 145.055 163.258C146.027 162.505 146.95 161.703 147.898 160.902C150.813 158.351 153.461 155.533 156.255 152.836C157.81 151.33 159.437 149.872 161.114 148.487C161.357 148.293 161.599 148.099 161.842 147.904C161.94 147.807 162.061 147.71 162.183 147.637C162.231 147.613 162.28 147.588 162.328 147.588C162.571 147.491 162.814 147.394 163.057 147.297C165.171 146.471 167.309 145.621 169.422 144.795C171.099 144.139 172.799 143.507 174.475 142.827C174.5 142.827 174.524 142.803 174.573 142.803C174.694 142.754 174.645 142.535 174.524 142.584C173.115 143.143 171.73 143.677 170.321 144.236C168.11 145.11 165.875 145.985 163.664 146.835C163.154 147.03 162.62 147.2 162.158 147.418C161.94 147.516 161.77 147.71 161.575 147.856C161.114 148.244 160.628 148.633 160.166 149.022C159.316 149.726 158.49 150.48 157.664 151.208C154.87 153.784 152.295 156.553 149.525 159.128C148.748 159.857 147.946 160.562 147.12 161.266C146.659 161.655 146.221 162.044 145.76 162.408C145.517 162.602 145.274 162.797 145.031 162.991C144.715 163.258 144.424 163.501 143.986 163.307C143.452 163.04 142.942 162.627 142.431 162.311C141.897 161.971 141.362 161.606 140.828 161.266C139.759 160.562 138.69 159.857 137.597 159.177C137.062 158.837 136.528 158.472 135.993 158.132C135.872 158.059 135.75 158.254 135.872 158.327Z" fill="#192244"/>
<path d="M184.387 69.2131H165.899C165.194 69.2131 164.611 68.63 164.611 67.9255V64.2085C164.611 63.504 165.194 62.9209 165.899 62.9209H184.387C185.091 62.9209 185.674 63.504 185.674 64.2085V67.9255C185.674 68.63 185.091 69.2131 184.387 69.2131Z" fill="#192244"/>
<path d="M175.034 1.40937C175.034 4.2032 175.034 6.97273 175.034 9.76656C175.034 10.1553 175.034 10.5683 175.034 10.957C175.034 11.1027 175.253 11.1027 175.253 10.957C175.253 8.16315 175.253 5.39361 175.253 2.59979C175.253 2.21108 175.253 1.79808 175.253 1.40937C175.253 1.26361 175.034 1.26361 175.034 1.40937Z" fill="#F5B900"/>
<path d="M148.091 13.3629C149.792 15.0149 151.492 16.6669 153.193 18.3189C153.436 18.5618 153.679 18.7805 153.897 19.0234C153.994 19.1206 154.165 18.9748 154.043 18.8776C152.342 17.2256 150.642 15.5736 148.941 13.9216C148.698 13.6787 148.455 13.46 148.237 13.2171C148.14 13.1199 147.994 13.2657 148.091 13.3629Z" fill="#F5B900"/>
<path d="M136.285 40.5243C138.86 40.5243 141.435 40.5243 144.01 40.5243C144.375 40.5243 144.739 40.5243 145.103 40.5243C145.249 40.5243 145.249 40.3057 145.103 40.3057C142.528 40.3057 139.953 40.3057 137.378 40.3057C137.013 40.3057 136.649 40.3057 136.285 40.3057C136.139 40.3057 136.139 40.5243 136.285 40.5243Z" fill="#F5B900"/>
<path d="M202.049 13.2171C200.348 14.8691 198.648 16.5211 196.947 18.1731C196.704 18.4161 196.461 18.6347 196.242 18.8776C196.145 18.9748 196.291 19.1206 196.388 19.0234C198.089 17.3714 199.789 15.7194 201.49 14.0674C201.733 13.8245 201.976 13.6058 202.195 13.3629C202.292 13.2657 202.146 13.1199 202.049 13.2171Z" fill="#F5B900"/>
<path d="M214.002 40.3057C211.427 40.3057 208.851 40.3057 206.276 40.3057C205.912 40.3057 205.547 40.3057 205.183 40.3057C205.037 40.3057 205.037 40.5243 205.183 40.5243C207.758 40.5243 210.333 40.5243 212.909 40.5243C213.273 40.5243 213.637 40.5243 214.002 40.5243C214.148 40.5243 214.148 40.3057 214.002 40.3057Z" fill="#F5B900"/>
<path d="M182.807 69.1936C182.905 69.7038 182.977 70.2383 182.977 70.7727C182.977 75.0971 179.479 78.5954 175.155 78.5954C170.83 78.5954 167.332 75.0971 167.332 70.7727C167.332 70.2383 167.381 69.7038 167.478 69.2179L182.807 69.1936Z" fill="#3F4FD3"/>
<path d="M167.382 62.9234C167.187 62.316 166.92 61.7572 166.653 61.1742C165.924 59.6194 165.049 58.1131 164.102 56.6555C162.644 54.4447 160.968 52.3554 159.17 50.4119C158.417 49.6102 157.785 48.687 157.227 47.7638C156.546 46.6706 155.963 45.5045 155.502 44.2897C153.777 39.8196 153.655 34.815 155.113 30.272C156.376 26.3121 158.854 22.7651 162.11 20.1899C165.438 17.5419 169.568 15.9628 173.795 15.6955C178.071 15.4283 182.371 16.4729 186.04 18.6837C189.587 20.8216 192.478 24.0284 194.227 27.7697C196.195 31.9483 196.705 36.7586 195.709 41.253C195.15 43.7553 194.154 46.1361 192.745 48.274C192.235 49.0757 191.652 49.8288 191.02 50.5333C190.048 51.578 189.125 52.6712 188.25 53.8131C186.21 56.4611 184.315 59.3521 183.1 62.4618C183.051 62.6075 182.979 62.7533 182.93 62.8991C182.954 62.8748 183.003 62.8505 183.027 62.8262C181.254 62.8262 179.48 62.8262 177.682 62.8262C174.864 62.8262 172.046 62.8262 169.228 62.8262C168.572 62.8262 167.94 62.8262 167.284 62.8262C167.139 62.8262 167.139 63.0448 167.284 63.0448C169.058 63.0448 170.831 63.0448 172.629 63.0448C175.447 63.0448 178.265 63.0448 181.084 63.0448C181.74 63.0448 182.371 63.0448 183.027 63.0448C183.076 63.0448 183.124 63.0205 183.124 62.972C183.343 62.3403 183.61 61.733 183.902 61.1256C184.679 59.4979 185.602 57.9431 186.598 56.4368C187.327 55.3436 188.105 54.2989 188.931 53.2786C189.392 52.7198 189.854 52.1611 190.34 51.6266C190.728 51.1893 191.141 50.752 191.53 50.3147C192.988 48.5412 194.178 46.5491 195.004 44.3869C196.729 39.8925 196.875 34.8393 195.417 30.272C194.154 26.3121 191.7 22.7651 188.469 20.1414C185.189 17.4933 181.156 15.8899 176.954 15.5255C172.678 15.1611 168.329 16.1085 164.588 18.2464C160.968 20.3114 158.004 23.4211 156.133 27.1381C154.093 31.1709 153.413 35.7868 154.141 40.2326C154.554 42.7349 155.429 45.1886 156.717 47.3751C157.324 48.4198 158.004 49.3915 158.782 50.3147C159.17 50.8006 159.632 51.2379 160.045 51.6995C160.531 52.2582 161.017 52.817 161.478 53.4001C163.689 56.1696 165.73 59.2064 167.017 62.5347C167.066 62.6804 167.139 62.8262 167.187 62.972C167.212 63.1177 167.406 63.0448 167.382 62.9234Z" fill="#192244"/>
<path d="M172.58 62.9434C172.58 62.3603 172.58 61.7772 172.58 61.1942C172.58 59.7365 172.58 58.2789 172.58 56.8212C172.58 54.8777 172.58 52.9342 172.58 50.9906C172.58 48.9985 172.58 47.0064 172.58 45.0143C172.58 43.3623 172.58 41.7103 172.58 40.0583C172.58 39.1837 172.58 38.2848 172.58 37.4102C172.58 36.8271 172.507 36.2684 172.264 35.7339C171.754 34.5192 170.636 33.6203 169.349 33.4017C168.061 33.183 166.725 33.6446 165.826 34.5921C164.927 35.5638 164.587 36.9729 164.927 38.2362C165.267 39.4752 166.239 40.4956 167.454 40.9086C167.988 41.0786 168.547 41.1029 169.106 41.1029C170.636 41.1029 172.143 41.1029 173.673 41.1029C175.592 41.1029 177.512 41.1029 179.431 41.1029C180.014 41.1029 180.621 41.1029 181.204 41.1029C181.788 41.1029 182.371 41.0786 182.929 40.86C184.144 40.4227 185.091 39.378 185.383 38.1147C185.699 36.8271 185.31 35.4424 184.387 34.4949C183.464 33.5474 182.103 33.1587 180.84 33.4017C179.577 33.6689 178.483 34.5678 178.022 35.7582C177.682 36.6085 177.755 37.5074 177.755 38.382C177.755 39.7181 177.755 41.03 177.755 42.3662C177.755 44.2611 177.755 46.1318 177.755 48.0267C177.755 50.0432 177.755 52.0596 177.755 54.0517C177.755 55.8009 177.755 57.5501 177.755 59.2992C177.755 60.3439 177.755 61.4128 177.755 62.4575C177.755 62.6032 177.755 62.749 177.755 62.8948C177.755 63.0405 177.973 63.0405 177.973 62.8948C177.973 60.9755 177.973 59.032 177.973 57.1128C177.973 53.3229 177.973 49.5573 177.973 45.7674C177.973 43.0707 177.973 40.3498 177.973 37.6531C177.973 37.5074 177.973 37.3373 177.973 37.1916C177.998 35.8554 178.702 34.6164 179.893 33.9604C181.156 33.2559 182.784 33.4017 183.925 34.3005C185.019 35.1751 185.553 36.6328 185.237 37.9933C184.921 39.3537 183.828 40.4713 182.468 40.7628C182.03 40.86 181.593 40.86 181.132 40.86C179.625 40.86 178.095 40.86 176.589 40.86C174.742 40.86 172.896 40.86 171.049 40.86C170.442 40.86 169.859 40.86 169.252 40.86C168.766 40.86 168.28 40.86 167.794 40.7385C166.434 40.3741 165.389 39.2323 165.146 37.8475C164.903 36.4627 165.51 35.0051 166.652 34.2034C167.818 33.3774 169.422 33.3288 170.636 34.0819C171.73 34.7378 172.386 35.9525 172.41 37.2158C172.434 39.208 172.41 41.2001 172.41 43.1922C172.41 46.9821 172.41 50.772 172.41 54.5619C172.41 57.2099 172.41 59.858 172.41 62.5061C172.41 62.6518 172.41 62.7733 172.41 62.9191C172.361 63.0891 172.58 63.0891 172.58 62.9434Z" fill="#192244"/>
<path d="M210.576 0.728825C211.037 0.728825 211.037 0 210.576 0C210.114 0 210.114 0.728825 210.576 0.728825Z" fill="#192244"/>
<path opacity="0.49" d="M174.887 52.9135C183.609 52.9135 190.679 45.8435 190.679 37.1223C190.679 28.401 183.609 21.3311 174.887 21.3311C166.166 21.3311 159.096 28.401 159.096 37.1223C159.096 45.8435 166.166 52.9135 174.887 52.9135Z" fill="#FFF200"/>
<g opacity="0.7">
<path opacity="0.7" d="M14.3027 181.26C14.3027 194.598 59.7085 205.943 122.849 210L123.213 150.285L123.335 131.968V116.444C59.9515 112.386 14.3027 101.041 14.3027 87.655V181.26Z" fill="#D6D8E5"/>
</g>
<g opacity="0.2">
<g opacity="0.2">
<path opacity="0.2" d="M23.025 173.558C23.0979 173.679 23.1708 173.776 23.268 173.873C23.4866 174.141 23.7538 174.384 24.0211 174.602C24.5556 175.04 25.1143 175.453 25.7217 175.817C26.6206 176.4 27.568 176.91 28.5398 177.396C29.9731 178.125 31.4308 178.757 32.9127 179.364C34.9049 180.19 36.9456 180.919 38.9863 181.623C41.6829 182.546 44.4282 183.372 47.1491 184.15C50.6718 185.146 54.2187 186.069 57.7657 186.919C62.1872 187.988 66.6087 188.96 71.0546 189.883C76.4722 191.001 81.914 192.021 87.3559 192.993C88.8622 193.26 90.3441 193.527 91.8503 193.77C92.3119 193.843 92.5063 193.139 92.0447 193.066C86.3599 192.094 80.675 191.049 75.0145 189.932C70.3257 189.009 65.6613 188.013 60.9968 186.919C57.2555 186.045 53.5142 185.122 49.7972 184.101C46.8576 183.3 43.9423 182.449 41.027 181.502C38.8162 180.797 36.6297 180.02 34.4676 179.17C32.8641 178.538 31.3822 177.931 29.8031 177.177C28.7341 176.667 27.6652 176.109 26.6448 175.501C26.2804 175.283 25.916 175.04 25.5516 174.821C25.4058 174.724 25.2601 174.627 25.1143 174.505C25.0414 174.457 24.9928 174.408 24.92 174.359C24.8957 174.335 24.8714 174.311 24.8471 174.286C24.7742 174.238 24.92 174.335 24.8228 174.262C24.4827 173.995 24.1668 173.728 23.8753 173.412C23.8267 173.363 23.8024 173.315 23.7538 173.266C23.7296 173.242 23.7295 173.218 23.7053 173.218C23.6567 173.145 23.7781 173.315 23.7295 173.242C23.7053 173.193 23.681 173.145 23.6324 173.12C23.6324 173.12 23.6324 173.12 23.6324 173.096C23.438 172.756 22.8064 173.145 23.025 173.558Z" fill="#D6D8E5"/>
</g>
</g>
<path d="M85.4609 189.688V156.113L80.4077 154.85V188.74L85.4609 189.688Z" fill="#AAAAAA"/>
<path d="M75.3538 187.794V162.383L70.3007 161.144V186.847L75.3538 187.794Z" fill="#C2C4CC"/>
<path d="M64.6655 185.609L59.9038 184.346V153.614L64.6655 155.363V185.609Z" fill="#009DDB"/>
<path d="M49.1892 134.149L54.5582 135.412V182.446L49.1892 180.721V134.149Z" fill="#192244"/>
<path d="M38.4995 140.421L44.4516 142.948V179.414L38.4995 177.203V140.421Z" fill="#F5B900"/>
<path d="M28.9768 143.553L34.3458 146.08V176.18L28.9768 173.362V143.553Z" fill="#3F4FD3"/>
</svg>
