<?xml version="1.0" encoding="utf-8"?>
<!-- Generator: Adobe Illustrator 25.0.1, SVG Export Plug-In . SVG Version: 6.00 Build 0)  -->
<svg version="1.1" id="Layer_1" xmlns="http://www.w3.org/2000/svg" xmlns:xlink="http://www.w3.org/1999/xlink" x="0px" y="0px"
	 viewBox="0 0 75 18" style="enable-background:new 0 0 75 18;" xml:space="preserve">
<style type="text/css">
	.st0{fill:#FFFFFF;}
</style>
<path class="st0" d="M0,16.8c1.1-1.4,2.2-2.8,3.5-4c1.3-1.2,2.6-2.4,4-3.5c2.9-2.1,6-3.9,9.2-5.2c1.6-0.7,3.3-1.3,5-1.8L22.4,2
	c0.2-0.1,0.4-0.1,0.6-0.2c0.4-0.1,0.9-0.2,1.3-0.3C25.2,1.3,26.1,1.1,27,1c1.7-0.3,3.5-0.6,5.3-0.7c0.9-0.1,1.8-0.1,2.7-0.2
	c0.2,0,0.4,0,0.7,0l0.7,0l0.7,0c0.2,0,0.4,0,0.7,0l0.7,0h0.3l0.3,0l0.7,0c0.2,0,0.4,0,0.7,0c0.4,0,0.9,0.1,1.3,0.1l1.3,0.1
	c1.8,0.2,3.5,0.4,5.3,0.8c3.5,0.7,6.9,1.7,10.1,3.1c3.3,1.4,6.4,3.1,9.2,5.3L68,9.8l0.3,0.2l0.1,0.1l0.1,0.1l0.5,0.4l0.3,0.2
	c0.1,0.1,0.2,0.1,0.3,0.2c0.3,0.3,0.7,0.6,1,0.9l0.5,0.4c0.1,0.1,0.2,0.2,0.2,0.2l0.2,0.2c1.3,1.2,2.4,2.6,3.5,4l-0.9,0.8
	c-1.2-1.2-2.5-2.4-3.8-3.4L70.1,14c-0.1-0.1-0.2-0.1-0.2-0.2l-0.5-0.4c-0.3-0.3-0.7-0.5-1-0.7c-0.1-0.1-0.2-0.1-0.3-0.2l-0.3-0.2
	L67.3,12l-0.1-0.1L67,11.8l-0.3-0.2l-0.5-0.3c-2.9-1.8-5.9-3.3-9-4.4c-3.1-1.2-6.4-2-9.7-2.6c-1.6-0.3-3.3-0.5-5-0.7l-1.3-0.1
	c-0.4,0-0.8,0-1.3-0.1c-0.8,0-1.7-0.1-2.5-0.1c-0.2,0-0.4,0-0.6,0l-0.6,0l-0.6,0l-0.6,0c-0.4,0-0.8,0-1.3,0.1l-0.6,0l-0.3,0
	c-0.1,0-0.2,0-0.3,0c-0.4,0-0.8,0.1-1.2,0.1L30,3.8l-1.2,0.2c-0.1,0-0.2,0-0.3,0L28.1,4l-0.6,0.1c-0.8,0.1-1.6,0.3-2.5,0.5
	c-0.2,0-0.4,0.1-0.6,0.1l-0.6,0.1c-0.2,0-0.4,0.1-0.6,0.1l-0.6,0.2c-1.6,0.4-3.2,0.9-4.8,1.5c-3.1,1.2-6.2,2.7-9,4.5
	c-1.4,0.9-2.8,1.9-4.1,3c-1.3,1.1-2.5,2.2-3.7,3.5L0,16.8z"/>
</svg>
